Задача:

1 Взять с адреса "http://82.196.1.83:9570" JSON 
2 Распарсить записав в модель
3 Дополнить модель соблюдая типы:
	- числа должны быть int
	- дата в формате Unix
	- bool в формате bool
4 Вывести в консоль отсортированные (по возрасту) данные:
	- в порядке убывания 
	- в порядке возрастания
5 Собрать данные в массив ключ->ключ->массив значений (`гендерная принадлежность` -> `семейное положение (bool - обязательно)` -> `люди`)
	пример: 
	// map[
	// 	m:map[
	// 		true:[
	// 			{John, Doe, ...} 
	// 			{...}
	// 			] 
	// 		false:[
	// 			{Joshua, Star, ...} 
	// 			{...}
	// 			]
	// 		] 
	// 	f:map[
	// 		true:[
	// 			{Jane, Sith, ...} 
	// 			{...} 
	// 			] 
	// 		false:[
	// 			{Veronica, Ingil ...}
	// 			{...} 
	// 		]
	// 	]
	// ]
6 Вывести собраный массив ключ->ключ->массив значений в консоль